{
  "client-create": {
      "account": "ntp-ca1s-01",
      "directory": "/.backup",
      "server": "192.168.68.97",
      "privkey": [
        "-----BEGIN RSA PRIVATE KEY-----",
        "MIIEowIBAAKCAQEAsJw7kR1k6JYkov1+O7yqJUApWo8cvCTvY410/QUm0D19myK9",
        "O+ZgG1bHokO77GlutxWniAaeFzi/rtS+pxZD5WKaZdLZ+OGQcrta2DqJcQ9jozmL",
        "Nb3p4smiUKmFNgMibbCL6cuGVg4/WlsDR5Ny6NmWKghowuywhVhT5z5X3RslmAtB",
        "wyR8Lt6j08/VyzNdHCCoPbeQBhpg5XgeEY6pdzOL95v2IkI7HGky7/WVltovLXz6",
        "K5lR0CNYV+QXMOBOFo7MDv9YK4rlznf5fy6RBBK0D1atZgezTJUVOO983onrMsnd",
        "Rqt0dg4SaI7gdk5+FSpRcumAOP/gmEOtg5A8gwIBIwKCAQBBmR1wagDorMvHgrnb",
        "rHm2EIRjdvwLXi0HuDLEYP/JsHB7c02Z59qNz8Z+GSiLApbWSd8j5TNntf4NvLvX",
        "qS8pUIJ9l3WIU8fwGbQHK69kgg8QvZobRooSaCZYeXqfCHqAg2cq89LPgaKApXY/",
        "KCNdzSkljhhIZoq1L2+fCIcI+tXZ1SAB/mp7dQ1++7r7TesWFWuJR9mRnVVUKzb9",
        "2wv5ngRdIC/Fna6Q2RLdHoCGoOr9JMqixML2WcwplG5tJgZSinJp+dAkcsvzHkIB",
        "q3hq0K+U2AGAnDQWd9IS/urRHbR23k9g8B+l4lSQgBwwlscPZo38wYgYtBi7ItEm",
        "oGEbAoGBAOdDotg4SOJNBmOvwLijUgbaASnEItBqPbpxCDll0prdYpyJk0DOmBLB",
        "RxlfDzQr8/0DYvVhdX8D9I+lxVel/sK3e+CMkskQJDE9lx/YaMfPMngMV+oFrwEw",
        "eVSCkE3EGKSFTYvDe5Xg6WVDQz00FVmOPH3UHvADEzKykYOFS1f7AoGBAMOAFuv7",
        "pMn36+C6fRINIz/Llw4vXScT0plWwHgARu5cOzJzT5cr7e/o2auzu6Tsvs0xyqgn",
        "m+1In3ukotFRU8keYxnu8165RVRkyna1+CKLc0+ZpYRBKk1CFDxb2EDADZvjm/H0",
        "Wp0Rm/DbVS/6e9GE2bfO6Oa4VpKyypRu498ZAoGBAJ6Ux2+xkRA00S5p4zzHwzfl",
        "8itEqiiDXYco77JUcyhdSu7/QGb0EIHjnnfMJ66/DbTPH0ks4trA4jadjqKAdC2/",
        "pWbGyw2HaUZWHnw8n570emDyhW1FudTuCg4QYvN/Jtc21hax7lglMlQQ3aZPmZx+",
        "ymTpOckmrhQirOx4qLFbAoGBALhUMt5/jL5taV7bt8CQC0rHRUfjg7chUYlDKn/F",
        "vziC2LqJ+pXY9kiZt0oefbjB9bonodG+8ho9KKfHHSvBtWXa0neJhmCgDir/8hgn",
        "6fSvXhfaAnViA1AoXDjo4damczs1sEqHTh8QmlgfQbDk2ySh1Jdcr7T28opQzaHk",
        "5XqTAoGBAKghTf7QKyaMXSlL4jDgfl4m4MwcoA0iCX4KIRpz0IPfTbNau+adJoO+",
        "8o5YV755IbmdII6IXujVgc0IccPOgazBA1vB3y1d6gzsJq5fgho0vxay2iD9agsD",
        "yIkNaBScD7FjgZlF8UjNHKRpoQxRSjV23EZiLXFV1iJ5rovWpYy+",
        "-----END RSA PRIVATE KEY-----"
      ],
      "backup": [
        "# backup files",
        "/etc/hosts",
        "/etc/ntp.conf",
        "/etc/passwd",
        "/etc/group",
        "/etc/shadow",
        "/etc/sudoers",
        "/etc/sysctl.conf",
        "/etc/sysconfig/iptables",
        "/etc/sysconfig/network",
        "/etc/security/access.conf",
        "/etc/security/limits.conf",
        "/etc/sysconfig/network-scripts/ifcfg-eth0",
        "/etc/sysconfig/network-scripts/ifcfg-eth1",
        "/etc/udev/rules.d/70-persistent-net.rules"
      ]     
  }
}
