{
  "cluster": [
      "vmsb1-ca1s-01",
      "vmsb1-ca1s-02",
      "vmsb1-ca1s-03",
      "vmsb1-ca1s-04",
      "vmsb1-ca1s-05",
      "vmsb1-ca1s-06"
  ],
  "uri": "qemu+tcp://",
  "dumpxml": {
       "vm": "ntp-ca1s-01"
  }
}
