{
  "cluster": [
      "vmsb1-ca1s-01",
      "vmsb1-ca1s-02",
      "vmsb1-ca1s-03",
      "vmsb1-ca1s-04",
      "vmsb1-ca1s-05",
      "vmsb1-ca1s-06"
  ],
  "uri": "qemu+tcp://",
  "install": {
       "kickstart": [
         "#-----BEGIN LINUX KICKSTART-----#",
         "install",
         "firstboot --disable",
         "url --url=http://192.168.68.153/centos/7/os/x86_64/",
         "lang en_US.UTF-8",
         "timezone --utc America/Los_Angeles",
         "keyboard us",
         "network --onboot yes --device eth0 --bootproto static --ip 192.168.68.98 --netmask 255.255.255.0 --gateway 192.168.68.1 --noipv6 --hostname=test1-ca1s-01",
         "rootpw  FreshInstall2019",
         "firewall --service=ssh",
         "authconfig --enableshadow --passalgo=sha512 --enablepamaccess --enablemkhomedir",
         "selinux --enforcing",
         "bootloader --location=mbr --driveorder=vda --append='crashkernel=auto console=ttyS0,115200'",
         "cmdline",
         "zerombr",
         "clearpart --all --drives=vda",
         "part / --asprimary --grow --size=1 --fstype=xfs",
         "%packages --nobase --ignoremissing",
         "@core",
         "%end",
         "%post --log=/root/install-post-log",
         "curl http://192.168.68.153/bootstrap.txt | python /dev/stdin test1-ca1s-01",
         "curl http://192.168.68.153/bootstrap.txt | python /dev/stdin -o swapfile",
         "yum update -y",
         "curl http://192.168.68.153/bootstrap.txt | python /dev/stdin -o yum",
         "date",
         "%end",
         "reboot",
         "#-----END LINUX KICKSTART-----#"
       ],
       "tmpfile": "/tmp/ks.cfg",
       "cmdline": "virt-install --quiet --noautoconsole --wait=-1 --name=test1-ca1s-01 --vcpus=2 --ram=2048 --disk path=/dev/mapper/36000d310048ce8000000000000000003 --network bridge=br304,model=virtio,mac=52:54:00:ec:5d:08  -l http://192.168.68.153/centos/7/os/x86_64/ --initrd-inject /tmp/ks.cfg --extra-args='inst.ks=file:/ks.cfg ip=192.168.68.98 netmask=255.255.255.0 gateway=192.168.68.1 noverifyssl console=tty0 console=ttyS0,115200 ipv6.disable=1 net.ifnames=0 biosdevname=0' --network bridge=br303,model=virtio,mac=52:54:00:ec:5d:09 --accelerate --nographics &",
       "hypervisor": "vmsb1-ca1s-01"
  }
}
