{
  "cluster": [
      "vmsb1-ca1s-01",
      "vmsb1-ca1s-02",
      "vmsb1-ca1s-03",
      "vmsb1-ca1s-04",
      "vmsb1-ca1s-05",
      "vmsb1-ca1s-06"
  ],
  "uri": "qemu+tcp://",
  "install": {
       "name": "tmp-ca1s-01",
       "vcpus": "2",
       "ram": "4096",
       "disk": "/dev/mapper/36000d310048ce8000000000000000004",
       "network": "br40,model=virtio,mac=52:54:00:47:74:4e",
       "ip": "192.168.68.100",
       "nm": "255.255.255.0",
       "gw": "192.168.68.1",
       "mirror": "192.168.68.153",
       "disk2": "/dev/mapper/36000d310048ce8000000000000000005",
       "network2": "br303,model=virtio,mac=52:54:00:47:74:4f",
       "rootpw": "FreshInstall2019",
       "hypervisor": "vmsb1-ca1s-06"
  }
}
