

virt-install --quiet --noautoconsole --wait=-1  --name=test1-ca1s-01 --vcpus=2 --ram=2048 --disk path=/dev/mapper/36000d310048ce8000000000000000003 --network bridge=br304,model=virtio,mac=52:54:00:ec:5d:08  -l http://192.168.68.153/centos/7/os/x86_64/ --initrd-inject /tmp/ks.cfg --extra-args='inst.ks=file:/ks.cfg ip=192.168.68.98 netmask=255.255.255.0 gateway=192.168.68.1 noverifyssl console=tty0 console=ttyS0,115200 ipv6.disable=1 net.ifnames=0 biosdevname=0' --network bridge=br303,model=virtio,mac=52:54:00:ec:5d:09 --accelerate --nographics &



