{
  "serverid": 9998,
  "server": "rdbc2-ca4-01",
  "data": {
    "Aborted_clients": "1873",
    "Aborted_connects": "1",
    "Access_denied_errors": "0",
    "Acl_column_grants": "0",
    "Acl_database_grants": "6",
    "Acl_function_grants": "0",
    "Acl_procedure_grants": "0",
    "Acl_proxy_users": "1",
    "Acl_role_grants": "0",
    "Acl_roles": "0",
    "Acl_table_grants": "0",
    "Acl_users": "24",
    "Aria_pagecache_blocks_not_flushed": "0",
    "Aria_pagecache_blocks_unused": "15706",
    "Aria_pagecache_blocks_used": "37",
    "Aria_pagecache_read_requests": "15418068",
    "Aria_pagecache_reads": "16525",
    "Aria_pagecache_write_requests": "5546664",
    "Aria_pagecache_writes": "0",
    "Aria_transaction_log_syncs": "0",
    "Binlog_bytes_written": "0",
    "Binlog_cache_disk_use": "18848",
    "Binlog_cache_use": "40276596",
    "Binlog_commits": "40276596",
    "Binlog_group_commit_trigger_count": "0",
    "Binlog_group_commit_trigger_lock_wait": "0",
    "Binlog_group_commit_trigger_timeout": "0",
    "Binlog_group_commits": "40276596",
    "Binlog_snapshot_file": "rdbc2-ca4-01-bin.000223",
    "Binlog_snapshot_position": "706821356",
    "Binlog_stmt_cache_disk_use": "0",
    "Binlog_stmt_cache_use": "0",
    "Busy_time": "0.000000",
    "Bytes_received": "250",
    "Bytes_sent": "3274",
    "Com_admin_commands": "2",
    "Com_alter_db": "0",
    "Com_alter_db_upgrade": "0",
    "Com_alter_event": "0",
    "Com_alter_function": "0",
    "Com_alter_procedure": "0",
    "Com_alter_server": "0",
    "Com_alter_table": "0",
    "Com_alter_tablespace": "0",
    "Com_alter_user": "0",
    "Com_analyze": "0",
    "Com_assign_to_keycache": "0",
    "Com_begin": "0",
    "Com_binlog": "0",
    "Com_call_procedure": "0",
    "Com_change_db": "0",
    "Com_change_master": "0",
    "Com_check": "0",
    "Com_checksum": "0",
    "Com_commit": "0",
    "Com_compound_sql": "0",
    "Com_create_db": "0",
    "Com_create_event": "0",
    "Com_create_function": "0",
    "Com_create_index": "0",
    "Com_create_procedure": "0",
    "Com_create_role": "0",
    "Com_create_server": "0",
    "Com_create_table": "0",
    "Com_create_temporary_table": "0",
    "Com_create_trigger": "0",
    "Com_create_udf": "0",
    "Com_create_user": "0",
    "Com_create_view": "0",
    "Com_dealloc_sql": "0",
    "Com_delete": "0",
    "Com_delete_multi": "0",
    "Com_do": "0",
    "Com_drop_db": "0",
    "Com_drop_event": "0",
    "Com_drop_function": "0",
    "Com_drop_index": "0",
    "Com_drop_procedure": "0",
    "Com_drop_role": "0",
    "Com_drop_server": "0",
    "Com_drop_table": "0",
    "Com_drop_temporary_table": "0",
    "Com_drop_trigger": "0",
    "Com_drop_user": "0",
    "Com_drop_view": "0",
    "Com_empty_query": "0",
    "Com_execute_immediate": "0",
    "Com_execute_sql": "0",
    "Com_flush": "0",
    "Com_get_diagnostics": "0",
    "Com_grant": "0",
    "Com_grant_role": "0",
    "Com_ha_close": "0",
    "Com_ha_open": "0",
    "Com_ha_read": "0",
    "Com_help": "0",
    "Com_insert": "0",
    "Com_insert_select": "0",
    "Com_install_plugin": "0",
    "Com_kill": "0",
    "Com_load": "0",
    "Com_lock_tables": "0",
    "Com_multi": "0",
    "Com_optimize": "0",
    "Com_preload_keys": "0",
    "Com_prepare_sql": "0",
    "Com_purge": "0",
    "Com_purge_before_date": "0",
    "Com_release_savepoint": "0",
    "Com_rename_table": "0",
    "Com_rename_user": "0",
    "Com_repair": "0",
    "Com_replace": "0",
    "Com_replace_select": "0",
    "Com_reset": "0",
    "Com_resignal": "0",
    "Com_revoke": "0",
    "Com_revoke_all": "0",
    "Com_revoke_role": "0",
    "Com_rollback": "0",
    "Com_rollback_to_savepoint": "0",
    "Com_savepoint": "0",
    "Com_select": "1",
    "Com_set_option": "2",
    "Com_show_authors": "0",
    "Com_show_binlog_events": "0",
    "Com_show_binlogs": "0",
    "Com_show_charsets": "0",
    "Com_show_collations": "0",
    "Com_show_contributors": "0",
    "Com_show_create_db": "0",
    "Com_show_create_event": "0",
    "Com_show_create_func": "0",
    "Com_show_create_proc": "0",
    "Com_show_create_table": "0",
    "Com_show_create_trigger": "0",
    "Com_show_create_user": "0",
    "Com_show_databases": "0",
    "Com_show_engine_logs": "0",
    "Com_show_engine_mutex": "0",
    "Com_show_engine_status": "0",
    "Com_show_errors": "0",
    "Com_show_events": "0",
    "Com_show_explain": "0",
    "Com_show_fields": "0",
    "Com_show_function_status": "0",
    "Com_show_generic": "0",
    "Com_show_grants": "0",
    "Com_show_keys": "0",
    "Com_show_master_status": "0",
    "Com_show_open_tables": "0",
    "Com_show_plugins": "0",
    "Com_show_privileges": "0",
    "Com_show_procedure_status": "0",
    "Com_show_processlist": "0",
    "Com_show_profile": "0",
    "Com_show_profiles": "0",
    "Com_show_relaylog_events": "0",
    "Com_show_slave_hosts": "0",
    "Com_show_slave_status": "1",
    "Com_show_status": "1",
    "Com_show_storage_engines": "0",
    "Com_show_table_status": "0",
    "Com_show_tables": "0",
    "Com_show_triggers": "0",
    "Com_show_variables": "0",
    "Com_show_warnings": "0",
    "Com_shutdown": "0",
    "Com_signal": "0",
    "Com_start_all_slaves": "0",
    "Com_start_slave": "0",
    "Com_stmt_close": "0",
    "Com_stmt_execute": "0",
    "Com_stmt_fetch": "0",
    "Com_stmt_prepare": "0",
    "Com_stmt_reprepare": "0",
    "Com_stmt_reset": "0",
    "Com_stmt_send_long_data": "0",
    "Com_stop_all_slaves": "0",
    "Com_stop_slave": "0",
    "Com_truncate": "0",
    "Com_uninstall_plugin": "0",
    "Com_unlock_tables": "0",
    "Com_update": "0",
    "Com_update_multi": "0",
    "Com_xa_commit": "0",
    "Com_xa_end": "0",
    "Com_xa_prepare": "0",
    "Com_xa_recover": "0",
    "Com_xa_rollback": "0",
    "Com_xa_start": "0",
    "Compression": "OFF",
    "Connect_Retry": 60,
    "Connection_errors_accept": "0",
    "Connection_errors_internal": "0",
    "Connection_errors_max_connections": "0",
    "Connection_errors_peer_address": "0",
    "Connection_errors_select": "0",
    "Connection_errors_tcpwrap": "0",
    "Connection_name": "dbc2-ca4-01",
    "Connections": "3715461",
    "Cpu_time": "0.000000",
    "Created_tmp_disk_tables": "0",
    "Created_tmp_files": "1083",
    "Created_tmp_tables": "0",
    "Delayed_errors": "0",
    "Delayed_insert_threads": "0",
    "Delayed_writes": "0",
    "Delete_scan": "0",
    "Empty_queries": "0",
    "Exec_Master_Log_Pos": 423331248,
    "Executed_events": "0",
    "Executed_log_entries": 229150344,
    "Executed_triggers": "0",
    "Feature_check_constraint": "0",
    "Feature_delay_key_write": "0",
    "Feature_dynamic_columns": "0",
    "Feature_fulltext": "0",
    "Feature_gis": "0",
    "Feature_locale": "0",
    "Feature_subquery": "0",
    "Feature_timezone": "0",
    "Feature_trigger": "0",
    "Feature_window_functions": "0",
    "Feature_xml": "0",
    "Flush_commands": "1",
    "Gtid_IO_Pos": "",
    "Gtid_Slave_Pos": "24810-419-6750288,24820-24821-87472000,24825-24825-109721",
    "Handler_commit": "0",
    "Handler_delete": "0",
    "Handler_discover": "0",
    "Handler_external_lock": "0",
    "Handler_icp_attempts": "0",
    "Handler_icp_match": "0",
    "Handler_mrr_init": "0",
    "Handler_mrr_key_refills": "0",
    "Handler_mrr_rowid_refills": "0",
    "Handler_prepare": "0",
    "Handler_read_first": "0",
    "Handler_read_key": "0",
    "Handler_read_last": "0",
    "Handler_read_next": "0",
    "Handler_read_prev": "0",
    "Handler_read_retry": "0",
    "Handler_read_rnd": "0",
    "Handler_read_rnd_deleted": "0",
    "Handler_read_rnd_next": "0",
    "Handler_rollback": "0",
    "Handler_savepoint": "0",
    "Handler_savepoint_rollback": "0",
    "Handler_tmp_update": "0",
    "Handler_tmp_write": "0",
    "Handler_update": "0",
    "Handler_write": "0",
    "Innodb_available_undo_logs": "128",
    "Innodb_buffer_pool_bytes_data": "5273714688",
    "Innodb_buffer_pool_bytes_dirty": "720896",
    "Innodb_buffer_pool_dump_status": "",
    "Innodb_buffer_pool_load_status": "Buffer pool(s) load completed at 180213 17:17:30",
    "Innodb_buffer_pool_pages_data": "321882",
    "Innodb_buffer_pool_pages_dirty": "44",
    "Innodb_buffer_pool_pages_flushed": "4559884",
    "Innodb_buffer_pool_pages_free": "2560",
    "Innodb_buffer_pool_pages_misc": "3238",
    "Innodb_buffer_pool_pages_total": "327680",
    "Innodb_buffer_pool_read_ahead": "1008382",
    "Innodb_buffer_pool_read_ahead_evicted": "227",
    "Innodb_buffer_pool_read_ahead_rnd": "0",
    "Innodb_buffer_pool_read_requests": "6582989218",
    "Innodb_buffer_pool_reads": "16863397",
    "Innodb_buffer_pool_resize_status": "",
    "Innodb_buffer_pool_wait_free": "0",
    "Innodb_buffer_pool_write_requests": "1389778663",
    "Innodb_data_fsyncs": "143745561",
    "Innodb_data_pending_fsyncs": "0",
    "Innodb_data_pending_reads": "0",
    "Innodb_data_pending_writes": "0",
    "Innodb_data_read": "305593321984",
    "Innodb_data_reads": "19165080",
    "Innodb_data_writes": "298980150",
    "Innodb_data_written": "7018162089984",
    "Innodb_dblwr_pages_written": "207947822",
    "Innodb_dblwr_writes": "34784171",
    "Innodb_defragment_compression_failures": "0",
    "Innodb_defragment_count": "0",
    "Innodb_defragment_failures": "0",
    "Innodb_encryption_key_rotation_list_length": "0",
    "Innodb_encryption_n_merge_blocks_decrypted": "0",
    "Innodb_encryption_n_merge_blocks_encrypted": "0",
    "Innodb_encryption_n_rowlog_blocks_decrypted": "0",
    "Innodb_encryption_n_rowlog_blocks_encrypted": "0",
    "Innodb_encryption_num_key_requests": "0",
    "Innodb_encryption_rotation_estimated_iops": "0",
    "Innodb_encryption_rotation_pages_flushed": "0",
    "Innodb_encryption_rotation_pages_modified": "0",
    "Innodb_encryption_rotation_pages_read_from_cache": "0",
    "Innodb_encryption_rotation_pages_read_from_disk": "0",
    "Innodb_have_bzip2": "OFF",
    "Innodb_have_lz4": "OFF",
    "Innodb_have_lzma": "ON",
    "Innodb_have_lzo": "OFF",
    "Innodb_have_punch_hole": "ON",
    "Innodb_have_snappy": "OFF",
    "Innodb_log_waits": "0",
    "Innodb_log_write_requests": "246618884",
    "Innodb_log_writes": "51520691",
    "Innodb_num_index_pages_written": "0",
    "Innodb_num_non_index_pages_written": "0",
    "Innodb_num_open_files": "800",
    "Innodb_num_page_compressed_trim_op": "0",
    "Innodb_num_pages_decrypted": "0",
    "Innodb_num_pages_encrypted": "0",
    "Innodb_num_pages_page_compressed": "0",
    "Innodb_num_pages_page_compression_error": "0",
    "Innodb_num_pages_page_decompressed": "0",
    "Innodb_onlineddl_pct_progress": "0",
    "Innodb_onlineddl_rowlog_pct_used": "0",
    "Innodb_onlineddl_rowlog_rows": "0",
    "Innodb_os_log_fsyncs": "56143817",
    "Innodb_os_log_pending_fsyncs": "0",
    "Innodb_os_log_pending_writes": "0",
    "Innodb_os_log_written": "201770990080",
    "Innodb_page_compression_saved": "0",
    "Innodb_page_size": "16384",
    "Innodb_pages0_read": "256471",
    "Innodb_pages_created": "2402009",
    "Innodb_pages_read": "18651853",
    "Innodb_pages_written": "207947953",
    "Innodb_row_lock_current_waits": "0",
    "Innodb_row_lock_time": "0",
    "Innodb_row_lock_time_avg": "0",
    "Innodb_row_lock_time_max": "0",
    "Innodb_row_lock_waits": "0",
    "Innodb_rows_deleted": "25887086",
    "Innodb_rows_inserted": "35840795",
    "Innodb_rows_read": "3340786936",
    "Innodb_rows_updated": "11065149",
    "Innodb_scrub_background_page_reorganizations": "0",
    "Innodb_scrub_background_page_split_failures_missing_index": "0",
    "Innodb_scrub_background_page_split_failures_out_of_filespace": "0",
    "Innodb_scrub_background_page_split_failures_underflow": "0",
    "Innodb_scrub_background_page_split_failures_unknown": "0",
    "Innodb_scrub_background_page_splits": "0",
    "Innodb_scrub_log": "0",
    "Innodb_secondary_index_triggered_cluster_reads": "699723856",
    "Innodb_secondary_index_triggered_cluster_reads_avoided": "0",
    "Innodb_system_rows_deleted": "40461146",
    "Innodb_system_rows_inserted": "40461146",
    "Innodb_system_rows_read": "40461150",
    "Innodb_system_rows_updated": "0",
    "Innodb_truncated_status_writes": "0",
    "Key_blocks_not_flushed": "0",
    "Key_blocks_unused": "107163",
    "Key_blocks_used": "0",
    "Key_blocks_warm": "0",
    "Key_read_requests": "0",
    "Key_reads": "0",
    "Key_write_requests": "0",
    "Key_writes": "0",
    "Last_Errno": 0,
    "Last_Error": "",
    "Last_IO_Errno": 0,
    "Last_IO_Error": "",
    "Last_SQL_Errno": 0,
    "Last_SQL_Error": "",
    "Last_query_cost": "0.000000",
    "Master_Host": "dbc2-ca4-03",
    "Master_Log_File": "dbc2-ca4-03-bin.000230",
    "Master_Port": 3306,
    "Master_SSL_Allowed": "No",
    "Master_SSL_CA_File": "",
    "Master_SSL_CA_Path": "",
    "Master_SSL_Cert": "",
    "Master_SSL_Cipher": "",
    "Master_SSL_Crl": "",
    "Master_SSL_Crlpath": "",
    "Master_SSL_Key": "",
    "Master_SSL_Verify_Server_Cert": "No",
    "Master_Server_Id": 24823,
    "Master_User": "rdbc2-ca4-01",
    "Master_gtid_wait_count": "0",
    "Master_gtid_wait_time": "0",
    "Master_gtid_wait_timeouts": "0",
    "Max_relay_log_size": 1073741824,
    "Max_statement_time_exceeded": "0",
    "Max_used_connections": "11",
    "Memory_used": "68168",
    "Not_flushed_delayed_rows": "0",
    "Open_files": "22",
    "Open_streams": "0",
    "Open_table_definitions": "800",
    "Open_tables": "800",
    "Opened_files": "3663889",
    "Opened_plugin_libraries": "0",
    "Opened_table_definitions": "0",
    "Opened_tables": "0",
    "Opened_views": "0",
    "Parallel_Mode": "conservative",
    "Performance_schema_accounts_lost": "0",
    "Performance_schema_cond_classes_lost": "0",
    "Performance_schema_cond_instances_lost": "0",
    "Performance_schema_digest_lost": "0",
    "Performance_schema_file_classes_lost": "0",
    "Performance_schema_file_handles_lost": "0",
    "Performance_schema_file_instances_lost": "0",
    "Performance_schema_hosts_lost": "0",
    "Performance_schema_locker_lost": "0",
    "Performance_schema_mutex_classes_lost": "0",
    "Performance_schema_mutex_instances_lost": "0",
    "Performance_schema_rwlock_classes_lost": "0",
    "Performance_schema_rwlock_instances_lost": "0",
    "Performance_schema_session_connect_attrs_lost": "0",
    "Performance_schema_socket_classes_lost": "0",
    "Performance_schema_socket_instances_lost": "0",
    "Performance_schema_stage_classes_lost": "0",
    "Performance_schema_statement_classes_lost": "0",
    "Performance_schema_table_handles_lost": "0",
    "Performance_schema_table_instances_lost": "0",
    "Performance_schema_thread_classes_lost": "0",
    "Performance_schema_thread_instances_lost": "0",
    "Performance_schema_users_lost": "0",
    "Prepared_stmt_count": "0",
    "Qcache_free_blocks": "0",
    "Qcache_free_memory": "0",
    "Qcache_hits": "0",
    "Qcache_inserts": "0",
    "Qcache_lowmem_prunes": "0",
    "Qcache_not_cached": "0",
    "Qcache_queries_in_cache": "0",
    "Qcache_total_blocks": "0",
    "Queries": "102886776",
    "Questions": "5",
    "Read_Master_Log_Pos": 423331248,
    "Relay_Log_File": "rdbc2-ca4-01-relay-bin-dbc2@002dca4@002d01.095621",
    "Relay_Log_Pos": 104495600,
    "Relay_Log_Space": 104548190,
    "Relay_Master_Log_File": "dbc2-ca4-03-bin.000230",
    "Replicate_Do_DB": "",
    "Replicate_Do_Domain_Ids": "",
    "Replicate_Do_Table": "",
    "Replicate_Ignore_DB": "",
    "Replicate_Ignore_Domain_Ids": "",
    "Replicate_Ignore_Server_Ids": "",
    "Replicate_Ignore_Table": "",
    "Replicate_Wild_Do_Table": "",
    "Replicate_Wild_Ignore_Table": "",
    "Retried_transactions": 0,
    "Rows_read": "0",
    "Rows_sent": "1",
    "Rows_tmp_read": "0",
    "Rpl_status": "AUTH_MASTER",
    "SQL_Delay": 0,
    "SQL_Remaining_Delay": null,
    "Seconds_Behind_Master": 129900,
    "Select_full_join": "0",
    "Select_full_range_join": "0",
    "Select_range": "0",
    "Select_range_check": "0",
    "Select_scan": "0",
    "Skip_Counter": 0,
    "Slave_IO_Running": "Yes",
    "Slave_IO_State": "Waiting for master to send event",
    "Slave_SQL_Running": "Yes",
    "Slave_SQL_Running_State": "Slave has read all relay log; waiting for the slave I/O thread to update it",
    "Slave_SQL_State": "Slave has read all relay log; waiting for the slave I/O thread to update it",
    "Slave_connections": "0",
    "Slave_heartbeat_period": "1800.000",
    "Slave_open_temp_tables": "0",
    "Slave_received_heartbeats": "0",
    "Slave_retried_transactions": "0",
    "Slave_running": "OFF",
    "Slave_skipped_errors": "0",
    "Slaves_connected": "0",
    "Slaves_running": "1",
    "Slow_launch_threads": "0",
    "Slow_queries": "0",
    "Sort_merge_passes": "0",
    "Sort_priority_queue_sorts": "0",
    "Sort_range": "0",
    "Sort_rows": "0",
    "Sort_scan": "0",
    "Ssl_accept_renegotiates": "0",
    "Ssl_accepts": "0",
    "Ssl_callback_cache_hits": "0",
    "Ssl_cipher": "",
    "Ssl_cipher_list": "",
    "Ssl_client_connects": "0",
    "Ssl_connect_renegotiates": "0",
    "Ssl_ctx_verify_depth": "0",
    "Ssl_ctx_verify_mode": "0",
    "Ssl_default_timeout": "0",
    "Ssl_finished_accepts": "0",
    "Ssl_finished_connects": "0",
    "Ssl_server_not_after": "",
    "Ssl_server_not_before": "",
    "Ssl_session_cache_hits": "0",
    "Ssl_session_cache_misses": "0",
    "Ssl_session_cache_mode": "NONE",
    "Ssl_session_cache_overflows": "0",
    "Ssl_session_cache_size": "0",
    "Ssl_session_cache_timeouts": "0",
    "Ssl_sessions_reused": "0",
    "Ssl_used_session_cache_entries": "0",
    "Ssl_verify_depth": "0",
    "Ssl_verify_mode": "0",
    "Ssl_version": "",
    "Subquery_cache_hit": "0",
    "Subquery_cache_miss": "0",
    "Syncs": "687639",
    "Table_locks_immediate": "443913",
    "Table_locks_waited": "0",
    "Tc_log_max_pages_used": "0",
    "Tc_log_page_size": "0",
    "Tc_log_page_waits": "0",
    "Threadpool_idle_threads": "0",
    "Threadpool_threads": "0",
    "Threads_cached": "10",
    "Threads_connected": "1",
    "Threads_created": "11",
    "Threads_running": "1",
    "Until_Condition": "None",
    "Until_Log_File": "",
    "Until_Log_Pos": 0,
    "Update_scan": "0",
    "Uptime": "22959614",
    "Uptime_since_flush_status": "22959614",
    "Using_Gtid": "No",
    "aria_block_size": "8192",
    "aria_checkpoint_interval": "30",
    "aria_checkpoint_log_activity": "1048576",
    "aria_encrypt_tables": "OFF",
    "aria_force_start_after_recovery_failures": "0",
    "aria_group_commit": "none",
    "aria_group_commit_interval": "0",
    "aria_log_file_size": "1073741824",
    "aria_log_purge_type": "immediate",
    "aria_max_sort_file_size": "9223372036853727232",
    "aria_page_checksum": "ON",
    "aria_pagecache_age_threshold": "300",
    "aria_pagecache_buffer_size": "134217728",
    "aria_pagecache_division_limit": "100",
    "aria_pagecache_file_hash_size": "512",
    "aria_recover_options": "BACKUP,QUICK",
    "aria_repair_threads": "1",
    "aria_sort_buffer_size": "268434432",
    "aria_stats_method": "nulls_unequal",
    "aria_sync_log_dir": "NEWFILE",
    "aria_used_for_temp_tables": "ON",
    "auto_increment_increment": "1",
    "auto_increment_offset": "1",
    "autocommit": "OFF",
    "automatic_sp_privileges": "ON",
    "back_log": "130",
    "basedir": "/usr/",
    "big_tables": "OFF",
    "binlog_annotate_row_events": "ON",
    "binlog_cache_size": "32768",
    "binlog_checksum": "CRC32",
    "binlog_commit_wait_count": "0",
    "binlog_commit_wait_usec": "100000",
    "binlog_direct_non_transactional_updates": "OFF",
    "binlog_format": "ROW",
    "binlog_optimize_thread_scheduling": "ON",
    "binlog_row_image": "FULL",
    "binlog_stmt_cache_size": "32768",
    "bulk_insert_buffer_size": "8388608",
    "character_set_client": "utf8",
    "character_set_connection": "utf8",
    "character_set_database": "latin1",
    "character_set_filesystem": "binary",
    "character_set_results": "utf8",
    "character_set_server": "latin1",
    "character_set_system": "utf8",
    "character_sets_dir": "/usr/share/mysql/charsets/",
    "check_constraint_checks": "ON",
    "collation_connection": "utf8_general_ci",
    "collation_database": "latin1_swedish_ci",
    "collation_server": "latin1_swedish_ci",
    "completion_type": "NO_CHAIN",
    "concurrent_insert": "AUTO",
    "connect_timeout": "10",
    "datadir": "/data/mysql/",
    "date_format": "%Y-%m-%d",
    "datetime_format": "%Y-%m-%d %H:%i:%s",
    "deadlock_search_depth_long": "15",
    "deadlock_search_depth_short": "4",
    "deadlock_timeout_long": "50000000",
    "deadlock_timeout_short": "10000",
    "debug_no_thread_alarm": "OFF",
    "default_master_connection": "",
    "default_regex_flags": "",
    "default_storage_engine": "InnoDB",
    "default_tmp_storage_engine": "",
    "default_week_format": "0",
    "delay_key_write": "ON",
    "delayed_insert_limit": "100",
    "delayed_insert_timeout": "300",
    "delayed_queue_size": "1000",
    "div_precision_increment": "4",
    "encrypt_binlog": "OFF",
    "encrypt_tmp_disk_tables": "OFF",
    "encrypt_tmp_files": "OFF",
    "enforce_storage_engine": "",
    "error_count": "0",
    "event_scheduler": "OFF",
    "expensive_subquery_limit": "100",
    "expire_logs_days": "7",
    "explicit_defaults_for_timestamp": "OFF",
    "external_user": "",
    "extra_max_connections": "1",
    "extra_port": "0",
    "flush": "OFF",
    "flush_time": "0",
    "foreign_key_checks": "ON",
    "ft_boolean_syntax": "+ -><()~*:\"\"&|",
    "ft_max_word_len": "84",
    "ft_min_word_len": "4",
    "ft_query_expansion_limit": "20",
    "ft_stopword_file": "(built-in)",
    "general_log": "OFF",
    "general_log_file": "rdbc2-ca4-01.log",
    "group_concat_max_len": "1048576",
    "gtid_binlog_pos": "24810-419-4068558,24820-24821-87472000,24825-24825-109721,248025-248025-1300994",
    "gtid_binlog_state": "24810-24721-820,24810-24811-826,24810-419-4068558,24820-419-287606,24820-24823-83279201,24820-24822-47907811,24820-24821-87472000,24825-24825-109721,248025-248025-1300994",
    "gtid_current_pos": "24810-419-6750288,24820-24821-87472000,24825-24825-109721",
    "gtid_domain_id": "24825",
    "gtid_ignore_duplicates": "OFF",
    "gtid_seq_no": "0",
    "gtid_slave_pos": "24810-419-6750288,24820-24821-87472000",
    "gtid_strict_mode": "OFF",
    "have_compress": "YES",
    "have_crypt": "YES",
    "have_dynamic_loading": "YES",
    "have_geometry": "YES",
    "have_openssl": "YES",
    "have_profiling": "YES",
    "have_query_cache": "YES",
    "have_rtree_keys": "YES",
    "have_ssl": "DISABLED",
    "have_symlink": "YES",
    "histogram_size": "0",
    "histogram_type": "SINGLE_PREC_HB",
    "host_cache_size": "528",
    "hostname": "rdbc2-ca4-01",
    "identity": "0",
    "ignore_builtin_innodb": "OFF",
    "ignore_db_dirs": "",
    "in_transaction": "0",
    "init_connect": "",
    "init_file": "",
    "init_slave": "",
    "innodb_adaptive_flushing": "ON",
    "innodb_adaptive_flushing_lwm": "10.000000",
    "innodb_adaptive_hash_index": "ON",
    "innodb_adaptive_hash_index_partitions": "20",
    "innodb_adaptive_hash_index_parts": "20",
    "innodb_adaptive_max_sleep_delay": "150000",
    "innodb_autoextend_increment": "64",
    "innodb_autoinc_lock_mode": "2",
    "innodb_background_scrub_data_check_interval": "3600",
    "innodb_background_scrub_data_compressed": "OFF",
    "innodb_background_scrub_data_interval": "604800",
    "innodb_background_scrub_data_uncompressed": "OFF",
    "innodb_buf_dump_status_frequency": "0",
    "innodb_buffer_pool_chunk_size": "134217728",
    "innodb_buffer_pool_dump_at_shutdown": "ON",
    "innodb_buffer_pool_dump_now": "OFF",
    "innodb_buffer_pool_dump_pct": "25",
    "innodb_buffer_pool_filename": "ib_buffer_pool",
    "innodb_buffer_pool_instances": "10",
    "innodb_buffer_pool_load_abort": "OFF",
    "innodb_buffer_pool_load_at_startup": "ON",
    "innodb_buffer_pool_load_now": "OFF",
    "innodb_buffer_pool_populate": "OFF",
    "innodb_buffer_pool_size": "5368709120",
    "innodb_change_buffer_max_size": "25",
    "innodb_change_buffering": "all",
    "innodb_checksum_algorithm": "crc32",
    "innodb_checksums": "ON",
    "innodb_cleaner_lsn_age_factor": "DEPRECATED",
    "innodb_cmp_per_index_enabled": "OFF",
    "innodb_commit_concurrency": "0",
    "innodb_compression_algorithm": "zlib",
    "innodb_compression_default": "OFF",
    "innodb_compression_failure_threshold_pct": "5",
    "innodb_compression_level": "6",
    "innodb_compression_pad_pct_max": "50",
    "innodb_concurrency_tickets": "5000",
    "innodb_corrupt_table_action": "deprecated",
    "innodb_data_file_path": "ibdata1:12M:autoextend",
    "innodb_data_home_dir": "",
    "innodb_deadlock_detect": "ON",
    "innodb_default_encryption_key_id": "1",
    "innodb_default_row_format": "dynamic",
    "innodb_defragment": "OFF",
    "innodb_defragment_fill_factor": "0.900000",
    "innodb_defragment_fill_factor_n_recs": "20",
    "innodb_defragment_frequency": "40",
    "innodb_defragment_n_pages": "7",
    "innodb_defragment_stats_accuracy": "0",
    "innodb_disable_sort_file_cache": "OFF",
    "innodb_disallow_writes": "OFF",
    "innodb_doublewrite": "ON",
    "innodb_empty_free_list_algorithm": "DEPRECATED",
    "innodb_encrypt_log": "OFF",
    "innodb_encrypt_tables": "OFF",
    "innodb_encryption_rotate_key_age": "1",
    "innodb_encryption_rotation_iops": "100",
    "innodb_encryption_threads": "0",
    "innodb_fake_changes": "OFF",
    "innodb_fast_shutdown": "0",
    "innodb_fatal_semaphore_wait_threshold": "600",
    "innodb_file_format": "Barracuda",
    "innodb_file_format_check": "ON",
    "innodb_file_format_max": "Barracuda",
    "innodb_file_per_table": "ON",
    "innodb_fill_factor": "100",
    "innodb_flush_log_at_timeout": "1",
    "innodb_flush_log_at_trx_commit": "1",
    "innodb_flush_method": "",
    "innodb_flush_neighbors": "1",
    "innodb_flush_sync": "ON",
    "innodb_flushing_avg_loops": "30",
    "innodb_force_load_corrupted": "OFF",
    "innodb_force_primary_key": "OFF",
    "innodb_force_recovery": "0",
    "innodb_foreground_preflush": "DEPRECATED",
    "innodb_ft_aux_table": "",
    "innodb_ft_cache_size": "8000000",
    "innodb_ft_enable_diag_print": "OFF",
    "innodb_ft_enable_stopword": "ON",
    "innodb_ft_max_token_size": "84",
    "innodb_ft_min_token_size": "3",
    "innodb_ft_num_word_optimize": "2000",
    "innodb_ft_result_cache_limit": "2000000000",
    "innodb_ft_server_stopword_table": "",
    "innodb_ft_sort_pll_degree": "2",
    "innodb_ft_total_cache_size": "640000000",
    "innodb_ft_user_stopword_table": "",
    "innodb_idle_flush_pct": "100",
    "innodb_immediate_scrub_data_uncompressed": "OFF",
    "innodb_instrument_semaphores": "OFF",
    "innodb_io_capacity": "200",
    "innodb_io_capacity_max": "2000",
    "innodb_kill_idle_transaction": "0",
    "innodb_large_prefix": "ON",
    "innodb_lock_schedule_algorithm": "vats",
    "innodb_lock_wait_timeout": "50",
    "innodb_locking_fake_changes": "OFF",
    "innodb_locks_unsafe_for_binlog": "OFF",
    "innodb_log_arch_dir": "",
    "innodb_log_arch_expire_sec": "0",
    "innodb_log_archive": "OFF",
    "innodb_log_block_size": "0",
    "innodb_log_buffer_size": "16777216",
    "innodb_log_checksum_algorithm": "DEPRECATED",
    "innodb_log_checksums": "ON",
    "innodb_log_compressed_pages": "ON",
    "innodb_log_file_size": "50331648",
    "innodb_log_files_in_group": "2",
    "innodb_log_group_home_dir": "./",
    "innodb_log_write_ahead_size": "8192",
    "innodb_lru_scan_depth": "256",
    "innodb_max_bitmap_file_size": "0",
    "innodb_max_changed_pages": "0",
    "innodb_max_dirty_pages_pct": "75.000000",
    "innodb_max_dirty_pages_pct_lwm": "0.000000",
    "innodb_max_purge_lag": "0",
    "innodb_max_purge_lag_delay": "0",
    "innodb_max_undo_log_size": "10485760",
    "innodb_mirrored_log_groups": "0",
    "innodb_monitor_disable": "",
    "innodb_monitor_enable": "",
    "innodb_monitor_reset": "",
    "innodb_monitor_reset_all": "",
    "innodb_mtflush_threads": "8",
    "innodb_old_blocks_pct": "37",
    "innodb_old_blocks_time": "1000",
    "innodb_online_alter_log_max_size": "134217728",
    "innodb_open_files": "800",
    "innodb_optimize_fulltext_only": "OFF",
    "innodb_page_cleaners": "10",
    "innodb_page_size": "16384",
    "innodb_prefix_index_cluster_optimization": "OFF",
    "innodb_print_all_deadlocks": "ON",
    "innodb_purge_batch_size": "300",
    "innodb_purge_rseg_truncate_frequency": "128",
    "innodb_purge_threads": "4",
    "innodb_random_read_ahead": "OFF",
    "innodb_read_ahead_threshold": "56",
    "innodb_read_io_threads": "4",
    "innodb_read_only": "OFF",
    "innodb_replication_delay": "0",
    "innodb_rollback_on_timeout": "OFF",
    "innodb_rollback_segments": "128",
    "innodb_sched_priority_cleaner": "0",
    "innodb_scrub_log": "OFF",
    "innodb_scrub_log_speed": "256",
    "innodb_show_locks_held": "0",
    "innodb_show_verbose_locks": "0",
    "innodb_sort_buffer_size": "1048576",
    "innodb_spin_wait_delay": "6",
    "innodb_stats_auto_recalc": "ON",
    "innodb_stats_include_delete_marked": "OFF",
    "innodb_stats_method": "nulls_equal",
    "innodb_stats_modified_counter": "0",
    "innodb_stats_on_metadata": "OFF",
    "innodb_stats_persistent": "OFF",
    "innodb_stats_persistent_sample_pages": "20",
    "innodb_stats_sample_pages": "8",
    "innodb_stats_traditional": "ON",
    "innodb_stats_transient_sample_pages": "8",
    "innodb_status_output": "OFF",
    "innodb_status_output_locks": "OFF",
    "innodb_strict_mode": "OFF",
    "innodb_support_xa": "ON",
    "innodb_sync_array_size": "1",
    "innodb_sync_spin_loops": "30",
    "innodb_table_locks": "ON",
    "innodb_temp_data_file_path": "ibtmp1:12M:autoextend",
    "innodb_thread_concurrency": "0",
    "innodb_thread_sleep_delay": "10000",
    "innodb_tmpdir": "",
    "innodb_track_changed_pages": "OFF",
    "innodb_track_redo_log_now": "OFF",
    "innodb_undo_directory": "./",
    "innodb_undo_log_truncate": "OFF",
    "innodb_undo_logs": "128",
    "innodb_undo_tablespaces": "0",
    "innodb_use_atomic_writes": "ON",
    "innodb_use_fallocate": "OFF",
    "innodb_use_global_flush_log_at_trx_commit": "OFF",
    "innodb_use_mtflush": "OFF",
    "innodb_use_native_aio": "ON",
    "innodb_use_stacktrace": "OFF",
    "innodb_use_trim": "ON",
    "innodb_version": "5.7.20",
    "innodb_write_io_threads": "4",
    "insert_id": "0",
    "interactive_timeout": "28800",
    "join_buffer_size": "262144",
    "join_buffer_space_limit": "2097152",
    "join_cache_level": "2",
    "keep_files_on_create": "OFF",
    "key_buffer_size": "134217728",
    "key_cache_age_threshold": "300",
    "key_cache_block_size": "1024",
    "key_cache_division_limit": "100",
    "key_cache_file_hash_size": "512",
    "key_cache_segments": "0",
    "large_files_support": "ON",
    "large_page_size": "0",
    "large_pages": "OFF",
    "last_gtid": "",
    "last_insert_id": "0",
    "lc_messages": "en_US",
    "lc_messages_dir": "",
    "lc_time_names": "en_US",
    "license": "GPL",
    "local_infile": "ON",
    "lock_wait_timeout": "86400",
    "locked_in_memory": "OFF",
    "log_bin": "ON",
    "log_bin_basename": "/data/mysql/rdbc2-ca4-01-bin",
    "log_bin_compress": "OFF",
    "log_bin_compress_min_len": "256",
    "log_bin_index": "/data/mysql/rdbc2-ca4-01-bin.index",
    "log_bin_trust_function_creators": "OFF",
    "log_error": "./rdbc2-ca4-01.err",
    "log_output": "FILE",
    "log_queries_not_using_indexes": "OFF",
    "log_slave_updates": "ON",
    "log_slow_admin_statements": "ON",
    "log_slow_filter": "admin,filesort,filesort_on_disk,full_join,full_scan,query_cache,query_cache_miss,tmp_table,tmp_table_on_disk",
    "log_slow_rate_limit": "1",
    "log_slow_slave_statements": "ON",
    "log_slow_verbosity": "",
    "log_tc_size": "24576",
    "log_warnings": "2",
    "long_query_time": "10.000000",
    "low_priority_updates": "OFF",
    "lower_case_file_system": "OFF",
    "lower_case_table_names": "0",
    "master_verify_checksum": "OFF",
    "max_allowed_packet": "1073741824",
    "max_binlog_cache_size": "18446744073709547520",
    "max_binlog_size": "1073741824",
    "max_binlog_stmt_cache_size": "18446744073709547520",
    "max_connect_errors": "100",
    "max_connections": "400",
    "max_delayed_threads": "20",
    "max_digest_length": "1024",
    "max_error_count": "64",
    "max_heap_table_size": "16777216",
    "max_insert_delayed_threads": "20",
    "max_join_size": "18446744073709551615",
    "max_length_for_sort_data": "1024",
    "max_long_data_size": "1073741824",
    "max_prepared_stmt_count": "16382",
    "max_recursive_iterations": "4294967295",
    "max_relay_log_size": "1073741824",
    "max_seeks_for_key": "4294967295",
    "max_session_mem_used": "9223372036854775807",
    "max_sort_length": "1024",
    "max_sp_recursion_depth": "0",
    "max_statement_time": "0.000000",
    "max_tmp_tables": "32",
    "max_user_connections": "0",
    "max_write_lock_count": "4294967295",
    "metadata_locks_cache_size": "1024",
    "metadata_locks_hash_instances": "8",
    "min_examined_row_limit": "0",
    "mrr_buffer_size": "262144",
    "multi_range_count": "256",
    "myisam_block_size": "1024",
    "myisam_data_pointer_size": "6",
    "myisam_max_sort_file_size": "9223372036853727232",
    "myisam_mmap_size": "18446744073709551615",
    "myisam_recover_options": "BACKUP,QUICK",
    "myisam_repair_threads": "1",
    "myisam_sort_buffer_size": "134216704",
    "myisam_stats_method": "NULLS_UNEQUAL",
    "myisam_use_mmap": "OFF",
    "mysql56_temporal_format": "ON",
    "net_buffer_length": "16384",
    "net_read_timeout": "30",
    "net_retry_count": "10",
    "net_write_timeout": "60",
    "old": "OFF",
    "old_alter_table": "OFF",
    "old_mode": "",
    "old_passwords": "OFF",
    "open_files_limit": "16364",
    "optimizer_prune_level": "1",
    "optimizer_search_depth": "62",
    "optimizer_selectivity_sampling_limit": "100",
    "optimizer_switch": "index_merge=on,index_merge_union=on,index_merge_sort_union=on,index_merge_intersection=on,index_merge_sort_intersection=off,engine_condition_pushdown=off,index_condition_pushdown=on,derived_merge=on,derived_with_keys=on,firstmatch=on,loosescan=on,materialization=on,in_to_exists=on,semijoin=on,partial_match_rowid_merge=on,partial_match_table_scan=on,subquery_cache=on,mrr=off,mrr_cost_based=off,mrr_sort_keys=off,outer_join_with_cache=on,semijoin_with_cache=on,join_cache_incremental=on,join_cache_hashed=on,join_cache_bka=on,optimize_join_buffer_size=off,table_elimination=on,extended_keys=on,exists_to_in=on,orderby_uses_equalities=on,condition_pushdown_for_derived=on",
    "optimizer_use_condition_selectivity": "1",
    "performance_schema": "OFF",
    "performance_schema_accounts_size": "-1",
    "performance_schema_digests_size": "-1",
    "performance_schema_events_stages_history_long_size": "-1",
    "performance_schema_events_stages_history_size": "-1",
    "performance_schema_events_statements_history_long_size": "-1",
    "performance_schema_events_statements_history_size": "-1",
    "performance_schema_events_waits_history_long_size": "-1",
    "performance_schema_events_waits_history_size": "-1",
    "performance_schema_hosts_size": "-1",
    "performance_schema_max_cond_classes": "80",
    "performance_schema_max_cond_instances": "-1",
    "performance_schema_max_digest_length": "1024",
    "performance_schema_max_file_classes": "50",
    "performance_schema_max_file_handles": "32768",
    "performance_schema_max_file_instances": "-1",
    "performance_schema_max_mutex_classes": "200",
    "performance_schema_max_mutex_instances": "-1",
    "performance_schema_max_rwlock_classes": "40",
    "performance_schema_max_rwlock_instances": "-1",
    "performance_schema_max_socket_classes": "10",
    "performance_schema_max_socket_instances": "-1",
    "performance_schema_max_stage_classes": "150",
    "performance_schema_max_statement_classes": "188",
    "performance_schema_max_table_handles": "-1",
    "performance_schema_max_table_instances": "-1",
    "performance_schema_max_thread_classes": "50",
    "performance_schema_max_thread_instances": "-1",
    "performance_schema_session_connect_attrs_size": "-1",
    "performance_schema_setup_actors_size": "100",
    "performance_schema_setup_objects_size": "100",
    "performance_schema_users_size": "-1",
    "pid_file": "/data/mysql/rdbc2-ca4-01.pid",
    "plugin_dir": "/usr/lib64/mysql/plugin/",
    "plugin_maturity": "unknown",
    "port": "3307",
    "preload_buffer_size": "32768",
    "profiling": "OFF",
    "profiling_history_size": "15",
    "progress_report_time": "5",
    "protocol_version": "10",
    "proxy_user": "",
    "pseudo_slave_mode": "OFF",
    "pseudo_thread_id": "3715460",
    "query_alloc_block_size": "16384",
    "query_cache_limit": "1048576",
    "query_cache_min_res_unit": "4096",
    "query_cache_size": "0",
    "query_cache_strip_comments": "OFF",
    "query_cache_type": "OFF",
    "query_cache_wlock_invalidate": "OFF",
    "query_prealloc_size": "24576",
    "rand_seed1": "496713774",
    "rand_seed2": "928604739",
    "range_alloc_block_size": "4096",
    "read_binlog_speed_limit": "0",
    "read_buffer_size": "131072",
    "read_only": "OFF",
    "read_rnd_buffer_size": "262144",
    "relay_log": "rdbc2-ca4-01-relay-bin",
    "relay_log_basename": "/data/mysql/rdbc2-ca4-01-relay-bin",
    "relay_log_index": "/data/mysql/rdbc2-ca4-01-relay-bin.index",
    "relay_log_info_file": "relay-log.info",
    "relay_log_purge": "ON",
    "relay_log_recovery": "OFF",
    "relay_log_space_limit": "0",
    "replicate_annotate_row_events": "ON",
    "replicate_do_db": "",
    "replicate_do_table": "",
    "replicate_events_marked_for_skip": "REPLICATE",
    "replicate_ignore_db": "",
    "replicate_ignore_table": "",
    "replicate_wild_do_table": "",
    "replicate_wild_ignore_table": "",
    "report_host": "rdbc2-ca4-01",
    "report_password": "",
    "report_port": "3307",
    "report_user": "",
    "rowid_merge_buff_size": "8388608",
    "secure_auth": "ON",
    "secure_file_priv": "",
    "server_id": "24825",
    "session_track_schema": "ON",
    "session_track_state_change": "OFF",
    "session_track_system_variables": "",
    "session_track_transaction_info": "OFF",
    "skip_external_locking": "ON",
    "skip_name_resolve": "ON",
    "skip_networking": "OFF",
    "skip_parallel_replication": "OFF",
    "skip_replication": "OFF",
    "skip_show_database": "OFF",
    "slave_compressed_protocol": "OFF",
    "slave_ddl_exec_mode": "IDEMPOTENT",
    "slave_domain_parallel_threads": "0",
    "slave_exec_mode": "STRICT",
    "slave_load_tmpdir": "/tmp",
    "slave_max_allowed_packet": "1073741824",
    "slave_net_timeout": "60",
    "slave_parallel_max_queued": "131072",
    "slave_parallel_mode": "conservative",
    "slave_parallel_threads": "0",
    "slave_parallel_workers": "0",
    "slave_run_triggers_for_rbr": "NO",
    "slave_skip_errors": "OFF",
    "slave_sql_verify_checksum": "ON",
    "slave_transaction_retries": "10",
    "slave_type_conversions": "",
    "slow_launch_time": "2",
    "slow_query_log": "OFF",
    "slow_query_log_file": "rdbc2-ca4-01-slow.log",
    "socket": "/var/lib/mysql/mysql.sock",
    "sort_buffer_size": "2097152",
    "sql_auto_is_null": "OFF",
    "sql_big_selects": "ON",
    "sql_buffer_result": "OFF",
    "sql_log_bin": "ON",
    "sql_log_off": "OFF",
    "sql_mode": "ERROR_FOR_DIVISION_BY_ZERO,NO_AUTO_CREATE_USER,NO_ENGINE_SUBSTITUTION",
    "sql_notes": "ON",
    "sql_quote_show_create": "ON",
    "sql_safe_updates": "OFF",
    "sql_select_limit": "18446744073709551615",
    "sql_slave_skip_counter": "0",
    "sql_warnings": "OFF",
    "ssl_ca": "",
    "ssl_capath": "",
    "ssl_cert": "",
    "ssl_cipher": "",
    "ssl_crl": "",
    "ssl_crlpath": "",
    "ssl_key": "",
    "standard_compliant_cte": "ON",
    "storage_engine": "InnoDB",
    "stored_program_cache": "256",
    "strict_password_validation": "ON",
    "sync_binlog": "0",
    "sync_frm": "ON",
    "sync_master_info": "10000",
    "sync_relay_log": "10000",
    "sync_relay_log_info": "10000",
    "system_time_zone": "PST",
    "table_definition_cache": "400",
    "table_open_cache": "800",
    "table_open_cache_instances": "8",
    "thread_cache_size": "256",
    "thread_concurrency": "10",
    "thread_handling": "one-thread-per-connection",
    "thread_pool_idle_timeout": "60",
    "thread_pool_max_threads": "65536",
    "thread_pool_oversubscribe": "3",
    "thread_pool_prio_kickup_timer": "1000",
    "thread_pool_priority": "auto",
    "thread_pool_size": "24",
    "thread_pool_stall_limit": "500",
    "thread_stack": "299008",
    "time_format": "%H:%i:%s",
    "time_zone": "SYSTEM",
    "timed_mutexes": "OFF",
    "timestamp": "1541526577.476122",
    "tmp_disk_table_size": "18446744073709551615",
    "tmp_memory_table_size": "16777216",
    "tmp_table_size": "16777216",
    "tmpdir": "/tmp",
    "transaction_alloc_block_size": "8192",
    "transaction_prealloc_size": "4096",
    "tx_isolation": "REPEATABLE-READ",
    "tx_read_only": "OFF",
    "unique_checks": "ON",
    "updatable_views_with_limit": "YES",
    "use_stat_tables": "NEVER",
    "userstat": "OFF",
    "version": "10.2.12-MariaDB-log",
    "version_comment": "MariaDB Server",
    "version_compile_machine": "x86_64",
    "version_compile_os": "Linux",
    "version_malloc_library": "system",
    "version_ssl_library": "OpenSSL 1.0.1e-fips 11 Feb 2013",
    "wait_timeout": "28800",
    "warning_count": "0",
    "wsrep_auto_increment_control": "ON",
    "wsrep_causal_reads": "OFF",
    "wsrep_certify_nonpk": "ON",
    "wsrep_cluster_address": "",
    "wsrep_cluster_conf_id": "18446744073709551615",
    "wsrep_cluster_name": "my_wsrep_cluster",
    "wsrep_cluster_size": "0",
    "wsrep_cluster_state_uuid": "",
    "wsrep_cluster_status": "Disconnected",
    "wsrep_connected": "OFF",
    "wsrep_convert_lock_to_trx": "OFF",
    "wsrep_data_home_dir": "/data/mysql/",
    "wsrep_dbug_option": "",
    "wsrep_debug": "OFF",
    "wsrep_desync": "OFF",
    "wsrep_dirty_reads": "OFF",
    "wsrep_drupal_282555_workaround": "OFF",
    "wsrep_forced_binlog_format": "NONE",
    "wsrep_gtid_domain_id": "0",
    "wsrep_gtid_mode": "OFF",
    "wsrep_load_data_splitting": "ON",
    "wsrep_local_bf_aborts": "0",
    "wsrep_local_index": "18446744073709551615",
    "wsrep_log_conflicts": "OFF",
    "wsrep_max_ws_rows": "0",
    "wsrep_max_ws_size": "2147483647",
    "wsrep_mysql_replication_bundle": "0",
    "wsrep_node_address": "",
    "wsrep_node_incoming_address": "AUTO",
    "wsrep_node_name": "rdbc2-ca4-01",
    "wsrep_notify_cmd": "",
    "wsrep_on": "OFF",
    "wsrep_osu_method": "TOI",
    "wsrep_patch_version": "wsrep_25.21",
    "wsrep_provider": "none",
    "wsrep_provider_name": "",
    "wsrep_provider_options": "",
    "wsrep_provider_vendor": "",
    "wsrep_provider_version": "",
    "wsrep_ready": "OFF",
    "wsrep_recover": "OFF",
    "wsrep_replicate_myisam": "OFF",
    "wsrep_restart_slave": "OFF",
    "wsrep_retry_autocommit": "1",
    "wsrep_slave_fk_checks": "ON",
    "wsrep_slave_threads": "1",
    "wsrep_slave_uk_checks": "OFF",
    "wsrep_sst_auth": "",
    "wsrep_sst_donor": "",
    "wsrep_sst_donor_rejects_queries": "OFF",
    "wsrep_sst_method": "rsync",
    "wsrep_sst_receive_address": "AUTO",
    "wsrep_start_position": "00000000-0000-0000-0000-000000000000:-1",
    "wsrep_sync_wait": "0",
    "wsrep_thread_count": "0"
}, 
  "settings": {
    "rrd":"true",
    "warning_variables":{
      "Seconds_Behind_Master":"600"
    },
    "critical_variables":{
      "Seconds_Behind_Master":"8192",
      "Slave_IO_Running":"Yes",
      "Slave_SQL_Running":"Yes"
    },
    "required_variables":{
      "innodb_adaptive_flushing": "ON",
      "innodb_adaptive_flushing_lwm": "10.000000",
      "innodb_adaptive_hash_index_partitions": "20",
      "innodb_buffer_pool_instances": "10",
      "innodb_buffer_pool_size": "5368709120",
      "innodb_change_buffering": "all",
      "innodb_file_per_table": "ON ",
      "innodb_flush_log_at_trx_commit": "1",
      "innodb_flush_method": "   ",
      "innodb_flushing_avg_loops": "30",
      "innodb_io_capacity": "200",
      "innodb_io_capacity_max": "2000  ",
      "innodb_log_file_size": "50331648",
      "innodb_lru_scan_depth": "256",
      "innodb_max_dirty_pages_pct": "75.000000",
      "innodb_max_dirty_pages_pct_lwm": "0.000000",
      "innodb_open_files": "800",
      "innodb_page_cleaners": "10 ",
      "innodb_strict_mode": "OFF",
      "max_connections": "400",
      "open_files_limit": "16364 ",
      "read_buffer_size": "131072",
      "read_rnd_buffer_size": "262144",
      "sort_buffer_size": "2097152",
      "table_definition_cache": "400",
      "table_open_cache": "800"
    }
  },
  "store": {}
}
