{
  "swappiness":"1",
  "MemTotal":"16264952",
  "MemFree":"1567952",
  "MemAvailable":"8337932",
  "SwapTotal":"1048572",
  "SwapFree":"1047704",
  "Shmem":"524444",
  "Buffers":"48",
  "Cached":"7128508"
{
